{
    "compilerOptions": {
        "baseUrl": ".",
        "paths": {
            "@pages": ["./resources/js/"],
            "@/*": ["./vendor/anima/firefly/resources/js/vendor/firefly"],
            "@fire": ["./vendor/anima/firefly/resources/js"],
            "@fireIMG": ["./vendor/anima/firefly/resources/img"]
        }
    },
    "exclude": ["node_modules", "public"]
}
