Attribute Name,Slug,Description
Access CMS,access-cms,Users with this permission can access the CMS
Home Read,home_read,Users with this permission can see the Home admin page
Home Edit,home_update,Users with this permission can edit Home
Home Create,home_create,Users with this permission can create Home
Home Delete,home_delete,Users with this permission can delete Home
Attributes Read,attributes_read,Users with this permission can see the Attributes admin page
Attributes Edit,attributes_update,Users with this permission can edit Attributes
Attributes Create,attributes_create,Users with this permission can create Attributes
Attributes Delete,attributes_delete,Users with this permission can delete Attributes
Categories Read,categories_read,Users with this permission can see the Categories admin page
Categories Edit,categories_update,Users with this permission can edit Categories
Categories Create,categories_create,Users with this permission can create Categories
Categories Delete,categories_delete,Users with this permission can delete Categories
Data Import Read,data import_read,Users with this permission can see the Data Import admin page
Data Import Edit,data import_update,Users with this permission can edit Data Import
Data Import Create,data import_create,Users with this permission can create Data Import
Data Import Delete,data import_delete,Users with this permission can delete Data Import
Emails Read,emails_read,Users with this permission can see the Emails admin page
Emails Edit,emails_update,Users with this permission can edit Emails
Emails Create,emails_create,Users with this permission can create Emails
Emails Delete,emails_delete,Users with this permission can delete Emails
Exercises Read,exercises_read,Users with this permission can see the Exercises admin page
Exercises Edit,exercises_update,Users with this permission can edit Exercises
Exercises Create,exercises_create,Users with this permission can create Exercises
Exercises Delete,exercises_delete,Users with this permission can delete Exercises
Form Types Read,form types_read,Users with this permission can see the Form Types admin page
Form Types Edit,form types_update,Users with this permission can edit Form Types
Form Types Create,form types_create,Users with this permission can create Form Types
Form Types Delete,form types_delete,Users with this permission can delete Form Types
Form Submissions Read,form submissions_read,Users with this permission can see the Form Submissions admin page
Form Submissions Edit,form submissions_update,Users with this permission can edit Form Submissions
Form Submissions Create,form submissions_create,Users with this permission can create Form Submissions
Form Submissions Delete,form submissions_delete,Users with this permission can delete Form Submissions
Forms Read,forms_read,Users with this permission can see the Forms admin page
Forms Edit,forms_update,Users with this permission can edit Forms
Forms Create,forms_create,Users with this permission can create Forms
Forms Delete,forms_delete,Users with this permission can delete Forms
Goals Read,goals_read,Users with this permission can see the Goals admin page
Goals Edit,goals_update,Users with this permission can edit Goals
Goals Create,goals_create,Users with this permission can create Goals
Goals Delete,goals_delete,Users with this permission can delete Goals
Invitations Read,invitations_read,Users with this permission can see the Invitations admin page
Invitations Edit,invitations_update,Users with this permission can edit Invitations
Invitations Create,invitations_create,Users with this permission can create Invitations
Invitations Delete,invitations_delete,Users with this permission can delete Invitations
Marketing Read,marketing_read,Users with this permission can see the Marketing admin page
Marketing Edit,marketing_update,Users with this permission can edit Marketing
Marketing Create,marketing_create,Users with this permission can create Marketing
Marketing Delete,marketing_delete,Users with this permission can delete Marketing
Media Read,media_read,Users with this permission can see the Media admin page
Media Edit,media_update,Users with this permission can edit Media
Media Create,media_create,Users with this permission can create Media
Media Delete,media_delete,Users with this permission can delete Media
Menus Read,menus_read,Users with this permission can see the Menus admin page
Menus Edit,menus_update,Users with this permission can edit Menus
Menus Create,menus_create,Users with this permission can create Menus
Menus Delete,menus_delete,Users with this permission can delete Menus
Pages Read,pages_read,Users with this permission can see the Pages admin page
Pages Edit,pages_update,Users with this permission can edit Pages
Pages Create,pages_create,Users with this permission can create Pages
Pages Delete,pages_delete,Users with this permission can delete Pages
Recommend Read,recommend_read,Users with this permission can see the Recommend admin page
Recommend Edit,recommend_update,Users with this permission can edit Recommend
Recommend Create,recommend_create,Users with this permission can create Recommend
Recommend Delete,recommend_delete,Users with this permission can delete Recommend
Resources Read,resources_read,Users with this permission can see the Resources admin page
Resources Edit,resources_update,Users with this permission can edit Resources
Resources Create,resources_create,Users with this permission can create Resources
Resources Delete,resources_delete,Users with this permission can delete Resources
Roles Read,roles_read,Users with this permission can see the Roles admin page
Roles Edit,roles_update,Users with this permission can edit Roles
Roles Create,roles_create,Users with this permission can create Roles
Roles Delete,roles_delete,Users with this permission can delete Roles
Routines Read,routines_read,Users with this permission can see the Routines admin page
Routines Edit,routines_update,Users with this permission can edit Routines
Routines Create,routines_create,Users with this permission can create Routines
Routines Delete,routines_delete,Users with this permission can delete Routines
Settings Read,settings_read,Users with this permission can see the Settings admin page
Settings Edit,settings_update,Users with this permission can edit Settings
Settings Create,settings_create,Users with this permission can create Settings
Settings Delete,settings_delete,Users with this permission can delete Settings
Stats Read,stats_read,Users with this permission can see the Stats admin page
Stats Edit,stats_update,Users with this permission can edit Stats
Stats Create,stats_create,Users with this permission can create Stats
Stats Delete,stats_delete,Users with this permission can delete Stats
Symptoms Read,symptoms_read,Users with this permission can see the Symptoms admin page
Symptoms Edit,symptoms_update,Users with this permission can edit Symptoms
Symptoms Create,symptoms_create,Users with this permission can create Symptoms
Symptoms Delete,symptoms_delete,Users with this permission can delete Symptoms
Tenants Read,tenants_read,Users with this permission can see the Tenants admin page
Tenants Edit,tenants_update,Users with this permission can edit Tenants
Tenants Create,tenants_create,Users with this permission can create Tenants
Tenants Delete,tenants_delete,Users with this permission can delete Tenants
Users Read,users_read,Users with this permission can see the Users admin page
Users Edit,users_update,Users with this permission can edit Users
Users Create,users_create,Users with this permission can create Users
Users Delete,users_delete,Users with this permission can delete Users
