<?xml version="1.0" encoding="UTF-8" standalone="no"?>
<!DOCTYPE svg PUBLIC "-//W3C//DTD SVG 1.1//EN" "http://www.w3.org/Graphics/SVG/1.1/DTD/svg11.dtd"><svg width="100%"
    height="100%" viewBox="0 0 2300 1900" version="1.1" xmlns="http://www.w3.org/2000/svg"
    xmlns:xlink="http://www.w3.org/1999/xlink" xml:space="preserve" xmlns:serif="http://www.serif.com/"
    style="fill-rule:evenodd;clip-rule:evenodd;stroke-linecap:round;stroke-linejoin:round;stroke-miterlimit:1.5;">
    <rect id="Artboard2" x="-0" y="0" width="8000" height="4500" style="fill:none;" />
    <clipPath id="_clip1">
        <rect x="-0" y="0" width="8000" height="4500" />
    </clipPath>
    <g clip-path="url(#_clip1)">
        <g>
            <g>
                <path d="M1149.11,-0l590.041,1114.06l-590.041,471.906l-590.04,-471.906l590.04,-1114.06Z"
                    style="fill:#fff;stroke:#FFCD00;stroke-width:20.83px;" />
                <path
                    d="M1054.75,1090.86l-282.612,470.21l0.343,0.241l-366.687,-111.244l173.497,-768.231l475.459,409.024Z"
                    style="fill:#fff;stroke:#FFCD00;stroke-width:20.83px;" />
                <path
                    d="M1245.25,1090.86l282.612,470.21l-0.343,0.241l366.687,-111.244l-173.497,-768.231l-475.459,409.024Z"
                    style="fill:#fff;stroke:#FFCD00;stroke-width:20.83px;" />
                <path d="M1150.79,928.072l380.676,633.37l-380.676,268.29l-380.676,-268.29l380.676,-633.37Z"
                    style="fill:#fff;stroke:#FFCD00;stroke-width:20.83px;" />
            </g>
        </g>
    </g>
</svg>